,N,C,Mg,P,K,Ca,Mn,Zn,Si,biomass,SRL,diameter,fine.ratio
S32,2800,425100,464.956,492.772,9727.244,2315.288,125.55,64.221,0.27,89.4,0.372899329,0.5792,6.704392048
S30,5000,461700,1361.299,544.994,6642.264,3316.97,187.684,36.42,1.286,806.9,0.411687694,0.648,3.136591683
P11,4400,454500,1965.374,642.092,11758.92,2497.233,108.975,189.809,0.207,27.5,2.503083636,0.3691,35.8465903
P12,9800,441000,1869.463,802.55,9608.715,1602.478,77.019,79.561,0.375,12.1,3.129991736,0.3553,15.18123558
S36,4300,494000,837.363,169.965,2979.05,2600.331,157.935,51.658,0.779,1869.5,0.668751752,0.5759,3.638457068
P13,5600,464100,246.982,689.514,2667.536,956.799,146.173,88.703,1.573,647,0.307788717,0.5007,8.43586767
P14,4600,460600,1465.988,654.141,12628.6,2590.094,146.036,108.742,0.353,34.5,1.809686957,0.3981,47.2982904
S46,5000,439600,1956.052,1186.981,12419.71,4139.691,400.054,77.798,0.56,429.5,0.748532014,0.5382,12.10448808
P16,5400,450300,424.051,526.475,2658.346,1892.496,190.403,109.305,1.661,531,0.680494915,0.4462,25.30358157
P17,5500,464100,1674.121,410.516,4444.505,3814.093,178.369,58.351,1.374,3302.1,0.19599676,0.6433,4.207712275
P18,7700,419200,1719.196,1730.216,31374.55,3771.859,240.637,116.826,0.54,1698,0.213905418,0.5893,5.461851886
S54,5300,449900,2777.575,1751.975,16281.85,4343.238,186.222,433.053,0.411,38.1,5.431,0.3852,45.50026971
P20,6200,457200,1658.127,591.174,3823.232,3236.052,153.811,59.15,1.701,1486,0.50498432,0.643,3.393935134
P21,5300,461600,2225.355,1332.571,13958.45,4334.954,287.799,163.286,0.506,664,1.733642018,0.4512,72.63108163
P1,5200,447000,270.971,829.081,2163.603,832.778,136.722,78.588,1.841,1203.1,0.28462447,0.5178,14.98940798
P22,7100,428700,420.138,602.64,2090.827,2296.941,194.408,71.303,3.091,990.4,0.253560077,0.4465,26.18411795
S64,3900,449700,1051.257,237.295,3968.211,3540.807,369.683,48.961,2.224,948.5,0.611531682,0.6979,3.15473887
P23,4600,436900,1402.639,986.653,11921.52,3074.766,109.335,157.141,0.315,100.4,0.669033865,0.5127,11.69513532
P24,5200,461300,1659.638,604.766,8248.109,3792.566,289.813,127.195,0.575,408.4,0.898356024,0.4796,14.69443981
S70,6500,454800,377.095,296.65,2087.194,1371.525,194.009,61.65,2.946,1126.1,0.411862268,0.5425,9.886211802
P25,7100,458700,2258.024,966.33,15664.6,2925.905,129.886,206.568,0.354,47.3,3.097274841,0.438,27.91475882
P26,3700,476400,548.94,169.083,5213.567,2102.962,126.236,22.045,0.553,3621.3,0.193987905,0.8696,1.366471911
P27,5900,458300,342.173,1274.877,2928.814,1087.803,74.078,100.571,1.144,388.6,0.574114514,0.47,19.48942032
P28,3900,456600,1292.349,200.934,2772.426,4346.865,353.879,91.424,2.333,886.7,0.649994023,0.739,2.504521323
S80,3500,455100,1339.005,607.653,13767.55,3141.372,423.563,110.805,0.559,233.2,0.774873928,0.5508,10.81129609
S82,7100,436600,1474.364,773.087,10815.8,3226.964,153.334,100.265,0.431,223,0.744651121,0.6456,6.533504816
P29,6400,460100,1400.84,565.953,4552.21,3114.938,220.549,43.573,1.377,3222.6,0.329027835,0.6302,5.266520174
P30,7600,442200,1278.788,1850.363,16653.67,2649.796,111.411,106.287,0.403,88.3,0.738241223,0.4892,8.021866999
P2,4500,453800,1292.809,274.114,5549.49,3336.606,201.538,20.123,1.553,1514,0.224377873,0.5947,3.733498867
P3,8000,428300,1924.467,1646.788,19355.13,4029.813,243.798,199.565,0.665,130.4,2.042738497,0.4593,15.51915289
S9,4800,420200,376.326,538.251,2808.685,1112.985,246.433,62.51,3.225,4185.3,0.343924808,0.4941,15.37068358
S90,7300,431400,996.887,757.515,9401.851,1238.57,14.358,160.049,0.072,25.1,0.795486056,0.5877,5.350826972
P31,9400,472200,325.821,2151.989,3398.52,1138.233,59.687,132.725,1.006,166.5,0.674922523,0.4546,49.38392217
P32,4800,460700,1450.63,608.786,9078.602,3658.772,194.022,190.935,0.815,570.5,0.887271166,0.461,16.8492211
P33,6300,459500,1537.849,506.976,4381.861,4614.117,292.234,69.445,1.55,837.1,0.626906104,0.5309,6.890299762
P34,5800,469100,252.859,588.339,1918.707,1801.7,162.856,92.96,1.559,338,0.78901568,0.4596,60.9341928
P35,4900,467500,1195.902,314.609,2684.278,5077.525,327.949,103.722,1.696,1146.3,0.482671639,0.5325,7.049652975
S100,4300,436500,157.728,289.928,1606.743,1133.906,249.384,70.235,4.713,412,0.450419417,0.48,18.68173767
S101,4800,453500,1026.131,234.08,998.113,4737.684,183.768,20.741,2.104,640.8,0.787200999,0.6428,3.112067848
P36,5900,460900,1650.014,627.855,9398.755,2678.046,196.019,52.425,0.557,144.2,1.419792649,0.4827,28.6044924
S105,4300,439700,1104.557,238.048,2931.637,2908.797,261.932,36.114,3.042,971.7,0.281524648,0.6375,3.622438886
P37,6800,441700,1704.142,919.744,20661.43,5119.851,541.371,47.534,1.214,1596.4,0.280316086,0.7783,3.861791206
S108,5300,451800,378.687,451.301,2001.915,1455.791,178.721,50.469,3.084,1138.4,0.334636507,0.4425,25.99242521
P39,5100,450400,804.34,966.793,8437.609,3489.791,183.53,22.518,0.418,1224.6,0.339087784,0.7054,7.012190815
P38,4200,475900,887.126,261.509,2305.885,3611.589,192.433,39.471,1.122,605.7,1.274726762,0.553,8.283163811
P4,4700,465700,1028.894,258.43,5469.975,2456.925,216.767,43.014,1.285,3147.6,0.283866088,0.6444,4.290543325
P5,5700,453600,304.391,619.034,2673.264,1994.308,113.242,83.253,1.231,535.7,0.787664551,0.4116,21.7376898
P40,4600,471500,1053.854,223.437,3620.946,2558.801,100.619,19.579,1.062,1451.6,0.3090124,0.6367,2.632195479
P41,5100,441600,1837.15,643.101,18310.43,5037.618,268.709,38.109,0.264,1100.2,0.359725959,0.6187,6.668691071
S120,4300,471900,1390.293,348.445,8331.931,2518.861,231.902,33.872,0.719,64.5,2.072065116,0.4171,34.79650213
P43,4300,434300,722.6,285.336,2663.231,4348.501,250.679,39.821,2.584,1190.8,0.576657457,0.6594,3.558628731
P44,3800,451000,137.943,313.706,1979.276,953.029,158.081,59.564,1.875,459.9,0.243980648,0.4759,22.84451103
P46,8900,470400,1342.279,3149.45,19882.06,3601.381,198.046,54.788,0.286,32.8,0.347926829,1.0372,0.886796508
P45,4800,466500,1073.704,270.91,2527.901,4746.665,176.426,44.583,1.572,728.3,0.74999794,0.5817,6.453237813
P47,5600,460700,85.192,264.199,1604.471,2092.064,127.598,54.956,2.63,809.3,0.208314593,0.4922,48.24204808
P48,4300,440100,1348.207,268.379,3157.308,3298.14,222.331,28.098,4.231,1718.7,0.104730901,0.7647,4.152817032
P49,5000,446600,1067.697,540.845,7076.581,6575.43,226.569,51.723,0.182,338,0.437349704,0.6522,6.20274333
P50,4900,439300,1265.315,1217.695,10702.18,1988.942,29.343,21.973,0.039,1164.7,0.343568988,0.6828,6.463336767
P52,4100,453600,925.197,222.8,2017.015,4827.268,230.114,46.389,2.251,381.5,0.604195806,0.5933,9.467890492
P54,5800,462400,1240.803,247.741,1121.99,3606.989,146.081,62.099,1.468,942.6,0.775054848,0.4988,11.69678782
P55,6200,426400,1563.83,1263.446,19055.21,3356.06,228.089,33.811,0.369,360.5,0.234606103,0.8276,3.379039319
P56,4300,441800,67.479,710.198,3449.409,1094.578,422.412,51.796,2.42,307.9,0.350898344,0.6572,4.368998281
S153,5300,441800,1130.786,553.4,5363.442,3278.125,331.585,37.23,2.788,945.5,0.810933157,0.6554,3.625433308
P60,6100,431200,2178.131,806.839,11980.42,5092.099,247.371,47.158,0.832,492.6,0.359394438,0.7077,5.227667186
P58,8100,452100,199.812,1161.578,3098.174,1567.525,163.575,120.036,2.051,203.9,0.71421383,0.529,10.56257245
P59,4300,452200,776.081,208.646,2008.416,2853.819,169.819,40.207,2.396,1254.9,0.700188461,0.6538,3.226740172
P61,3400,456900,1263.706,202.207,4572.774,3980.62,185.465,41.061,0.464,272.4,0.60338326,0.5206,18.58358851
P62,3900,430500,1258.511,1715.433,11934.07,2635.341,28.073,32.579,0.143,225.2,0.428872558,0.5061,17.89763256
P8,4100,431400,1078.828,1420.638,12227.14,1988.86,50.219,40.609,0.005,271.3,0.109854773,1.1519,1.942335601
P6,8800,435100,245.429,617.848,1511.227,2877.313,240.431,198.704,2.349,1089.9,0.189500229,0.6285,7.560901732
P7,7400,453600,2140.764,933.217,12234.39,2596.577,140.961,129.141,1.223,2712.3,0.412429119,0.5265,7.247850711
P9,4800,453600,227.215,551.413,3380.761,1351.034,156.068,109.435,1.966,216.3,1.872159501,0.4099,17.25689956
P10,5100,454300,1148.703,355.465,5541.291,2731.292,127.355,41.396,1.1,1476.7,2.049722745,0.5241,136.0773989
